government = steppe_horde
government_rank = 2
primary_culture = sandfang_gnoll
religion = xhazobkult
technology_group = tech_gnollish
national_focus = DIP
capital = 393

1437.2.9 = {
	monarch = {
		name = "Viakkoc XI"
		dynasty = "Scourge of All-Seas"
		birth_date = 1431.9.7
		adm = 2
		dip = 1
		mil = 6
	}
}